<svg width="455" height="177" viewBox="0 0 455 177" fill="none" xmlns="http://www.w3.org/2000/svg">
<path d="M42.4177 6.44952C45.9319 10.4484 47.6284 14.5685 47.6284 18.4463C47.6284 20.1428 46.4166 21.4757 44.7201 21.4757H41.4483H38.54C36.8435 21.4757 35.7529 20.5063 35.2682 18.4463C34.4199 15.2956 31.754 12.0238 27.9974 12.0238C23.7561 12.0238 20.2419 15.4168 20.2419 19.4157C20.2419 21.4757 21.3326 23.2934 23.0291 24.9899H15.2736C16.9701 26.6864 19.3937 28.2618 22.0596 29.7159H26.5433C26.7856 29.8371 26.9068 29.9583 27.1492 30.0795C28.6033 30.8065 30.1786 31.6548 31.8751 32.503C38.9035 36.5019 45.9319 42.9245 45.8107 53.9518C45.8107 59.4048 43.7507 64.0096 39.6306 68.0085C35.5105 72.0074 30.6633 73.9463 24.8467 73.9463C19.0302 73.9463 14.183 72.0074 10.0629 68.0085C5.94281 64.0096 3.88276 59.2836 3.88276 53.7094C3.88276 52.0129 5.21573 50.6799 6.91224 50.6799H8.36639H10.1841H12.85C14.5465 50.6799 15.8795 52.0129 15.8795 53.7094C15.8795 59.1624 20.1208 62.3131 24.7256 62.3131C29.5727 62.3131 32.9658 58.6777 32.9658 54.6788C32.9658 49.3469 28.6033 45.4692 22.9079 42.6821C18.0607 40.2585 12.2441 37.3502 8.48757 32.6242H4.00394C3.27687 31.776 2.67097 30.8065 2.18626 29.8371C1.45918 28.3829 0.853283 26.9288 0.489746 25.1111H8.36639C8.00285 23.657 7.88167 22.0816 7.88167 20.3851C7.88167 14.8109 9.82054 9.96372 13.6983 6.20717C17.6972 2.45062 22.4232 0.511753 27.9974 0.511753C34.1775 0.390574 39.0247 2.45061 42.4177 6.44952ZM105.431 1.48119H102.159H97.6754H68.3501C66.6535 1.48119 65.3206 2.81416 65.3206 4.51067V10.3273C65.3206 12.0238 66.6535 13.3567 68.3501 13.3567H72.8337H77.3173H80.5891V24.9899H72.8337V29.7159V32.503H77.3173V69.8262C77.3173 71.5227 78.6503 72.8557 80.3468 72.8557H82.1645H83.6186H86.6481C88.3446 72.8557 89.6776 71.5227 89.6776 69.8262V32.503V29.7159H85.1939V24.9899H92.9494V13.3567H97.5542H102.038H105.31C107.006 13.3567 108.339 12.0238 108.339 10.3273V4.51067C108.46 2.81416 107.127 1.48119 105.431 1.48119ZM227.095 6.44952C230.488 9.84254 232.063 13.8415 232.063 18.6886V24.9899H224.308V29.7159H228.791V31.4124C228.791 31.776 228.791 32.1395 228.67 32.3819C228.307 37.8349 225.398 42.9244 220.793 45.9539L230.488 69.2203C230.851 69.9474 230.851 70.3109 230.851 70.6745C230.851 72.1286 229.882 72.8557 228.064 72.8557H225.277H223.702H222.005C219.703 72.8557 218.006 71.8862 217.279 69.9474L208.675 48.6199H205.282H204.192H202.011V69.8262C202.011 71.5227 200.678 72.8557 198.981 72.8557H196.194H194.498H192.922C191.226 72.8557 189.893 71.5227 189.893 69.8262V32.503H185.409V29.7159V24.9899H193.165V4.51067C193.165 2.81416 194.498 1.48119 196.194 1.48119H206.979H211.463H214.734C219.582 1.48119 223.702 3.05651 227.095 6.44952ZM219.582 24.9899V18.2039C219.582 15.6592 217.279 13.3567 214.613 13.3567H211.341H206.858H205.404V24.9899H197.648V29.7159H202.132V32.503V36.6231H205.404H206.858H211.341C213.886 36.6231 215.946 34.6843 216.31 32.503H211.826C211.826 32.2607 211.947 32.1395 211.947 31.8971V29.7159V24.9899H219.582ZM289.744 1.48119H286.472H281.989H252.664C250.967 1.48119 249.634 2.81416 249.634 4.51067V10.3273C249.634 12.0238 250.967 13.3567 252.664 13.3567H257.147H261.631H264.903V24.9899H257.147V29.7159V32.503H261.631V69.8262C261.631 71.5227 262.964 72.8557 264.66 72.8557H266.478H267.932H270.962C272.658 72.8557 273.991 71.5227 273.991 69.8262V32.503V29.7159H269.507V24.9899H277.263V13.3567H281.868H286.351H289.623C291.32 13.3567 292.653 12.0238 292.653 10.3273V4.51067C292.774 2.81416 291.441 1.48119 289.744 1.48119ZM349.728 1.48119H346.456H343.669C341.973 1.48119 340.64 2.81416 340.64 4.51067V24.9899H332.884V29.7159V32.503H337.368V54.5576C337.368 58.7989 333.248 62.4343 328.4 62.4343C323.553 62.4343 319.312 58.6777 319.312 54.4365V32.503V29.7159H314.828V24.9899H322.584V4.51067C322.584 2.81416 321.251 1.48119 319.554 1.48119H316.283H313.495C311.799 1.48119 310.466 2.81416 310.466 4.51067V24.9899H302.71V29.7159V32.503H307.194V53.8306C307.194 59.2836 309.254 64.0096 313.374 68.0085C317.494 72.0074 322.463 73.9463 328.522 73.9463C334.581 73.9463 339.549 72.0074 343.548 68.1297C347.668 64.1308 349.728 59.4048 349.728 53.9518V32.503V29.7159H345.244V24.9899H353V4.51067C352.879 2.81416 351.546 1.48119 349.728 1.48119ZM411.045 6.44952C414.438 9.84254 416.134 13.8415 416.134 18.6886V24.9899H408.379V29.7159H412.862V32.3819V32.503C412.862 37.3502 411.166 41.3491 407.894 44.7421C404.501 48.1351 400.502 49.7105 395.655 49.7105H391.171H389.717H386.445V69.8262C386.445 71.5227 385.112 72.8557 383.416 72.8557H380.629H378.932H377.357C375.66 72.8557 374.327 71.5227 374.327 69.8262V32.503H369.844V29.7159V24.9899H377.599V4.51067C377.599 2.81416 378.932 1.48119 380.629 1.48119H391.171H395.655H398.927C403.774 1.48119 407.652 3.05651 411.045 6.44952ZM403.774 24.9899V18.2039C403.774 15.4168 401.471 13.3567 398.684 13.3567H395.413H390.929H389.717V24.9899H381.962V29.7159H386.445V32.503V37.9561H389.717H390.929H395.413C398.321 37.9561 400.502 35.7749 400.502 33.2301V32.503H396.14V29.7159V24.9899H403.774ZM123.244 32.503H118.761L119.609 29.7159L120.942 24.9899H128.697L134.756 4.14713C135.241 2.32944 136.453 1.36 138.27 1.36H144.451H148.934H152.206C153.903 1.36 155.114 2.32944 155.72 4.14713L161.779 24.9899H154.024L155.357 29.7159H159.84L160.689 32.503L162.87 39.7738C163.233 41.1068 163.354 42.4397 163.354 43.7727V69.9474C163.354 71.6439 162.022 72.9769 160.325 72.9769H157.659H155.841H154.387C152.691 72.9769 151.358 71.6439 151.358 69.9474V51.7705H146.874H136.089H132.817V69.9474C132.817 71.6439 131.484 72.9769 129.788 72.9769H127.122H125.304H123.85C122.154 72.9769 120.821 71.6439 120.821 69.9474V43.7727C120.821 42.6821 121.063 41.3491 121.305 39.7738L123.244 32.503ZM133.302 24.9899L131.969 29.7159H136.453L135.726 32.503L133.787 39.7738H137.059H145.662H150.146L148.207 32.503H143.723L142.996 29.7159L141.663 24.9899H149.419L146.268 13.3567H144.208L141.058 24.9899H133.302Z" fill="white"/>
<path d="M88.5871 103.999H85.3153H82.6493C80.9528 103.999 79.6198 105.332 79.6198 107.028V127.507H71.8644V131.628C71.8644 131.749 71.8644 131.991 71.8644 132.233C71.7432 132.839 71.622 133.809 71.2585 135.021H75.7421C75.6209 135.263 75.6209 135.626 75.4998 135.99L67.9866 163.619H65.9266L58.4135 135.99C58.2923 135.626 58.2923 135.384 58.1711 135.021C57.9288 133.93 57.8076 132.961 57.6864 132.233H53.2028C53.2028 131.991 53.2028 131.749 53.2028 131.628V127.507H60.9583V107.149C60.9583 105.453 59.6253 104.12 57.9288 104.12H54.6569H51.991C50.2945 104.12 48.9615 105.453 48.9615 107.149V127.629H41.2061V132.355V133.324C41.2061 133.93 41.2061 134.536 41.3272 135.142H45.8109C45.932 135.869 46.0532 136.596 46.1744 137.323L56.5958 172.828C57.0805 174.646 58.2923 175.616 60.11 175.616H63.3818H69.562H74.0456C75.7421 175.616 76.9539 174.646 77.5598 172.828L87.9812 137.323C88.1024 136.717 88.2236 135.99 88.3447 135.142C88.4659 134.536 88.4659 133.93 88.4659 133.324V132.355H83.9823V127.629H91.7378V107.149C91.6166 105.332 90.2836 103.999 88.5871 103.999Z" fill="white"/>
<path d="M151.479 103.999H148.207H143.723H115.731C114.398 103.999 113.307 105.089 113.307 106.422V113.33C113.307 114.662 114.398 115.753 115.731 115.753H119.73H124.214H127.485V127.507H119.73V132.233V135.021H124.214V163.619H119.73H115.731H112.459C111.126 163.619 110.036 164.709 110.036 166.042V172.95C110.036 174.283 111.126 175.373 112.459 175.373H115.731H143.723H148.207C149.904 175.373 150.873 174.525 150.873 172.95V166.042C150.873 164.467 149.904 163.619 148.207 163.619H143.723H139.846H136.574V135.021V132.233H132.09V127.507H139.846V115.753H143.723H148.207H151.479C153.175 115.753 154.145 114.905 154.145 113.33V106.422C154.145 104.847 153.175 103.999 151.479 103.999Z" fill="white"/>
<path d="M384.143 106.301C380.871 104.12 377.114 103.029 372.873 103.029C367.299 103.029 362.331 104.968 358.211 108.967C354.09 112.966 352.03 117.692 352.03 123.024V127.629H344.275V132.355V135.142H348.759V156.469C348.759 161.922 350.819 166.648 354.939 170.647C359.059 174.646 363.906 176.585 369.723 176.585C375.539 176.585 380.507 174.646 384.506 170.768C388.626 166.77 390.686 162.044 390.686 156.59V140.11C390.686 138.414 389.354 137.081 387.657 137.081H383.173H375.539H372.267C370.934 137.081 369.844 138.171 369.844 139.504V146.169C369.844 147.744 370.934 148.593 372.267 148.593H374.206H375.539H378.69L378.569 157.196C378.569 159.499 377.599 161.316 375.66 162.771C373.843 164.346 371.904 165.073 369.723 165.073C365.239 165.073 361.361 161.438 361.361 157.196V135.263V132.476H356.878V127.75H364.633V122.539C364.633 118.298 368.511 114.784 372.994 114.784C377.599 114.784 380.507 118.298 381.113 121.206C381.477 123.266 382.567 124.236 384.385 124.236H387.293H390.565C392.262 124.236 393.474 122.903 393.474 121.206C393.352 116.238 390.687 110.421 384.143 106.301Z" fill="white"/>
<path d="M451.882 103.999H450.913H446.429H422.314C420.618 103.999 419.285 105.332 419.285 107.028V127.507H411.529V132.233V135.021H416.013V172.344C416.013 174.04 417.346 175.373 419.042 175.373H422.314H447.156H451.64C453.336 175.373 454.669 174.04 454.669 172.344V166.527C454.669 164.831 453.336 163.498 451.64 163.498H447.156H431.403H428.131V144.109H431.403H444.126H448.61C450.307 144.109 451.64 142.776 451.64 141.08V135.384C451.64 135.263 451.64 135.142 451.64 135.142C451.518 133.566 450.307 132.355 448.61 132.355H444.126H431.403H428.131H423.647V127.629H431.403V115.995H446.429H450.913H451.882C453.578 115.995 454.911 114.662 454.911 112.966V107.149C454.911 105.332 453.578 103.999 451.882 103.999Z" fill="white"/>
<path d="M211.705 163.498H207.221H188.923H185.652V135.021V132.233H181.168V127.507H188.923V107.149C188.923 105.453 187.59 104.12 185.894 104.12H182.622H179.835C178.138 104.12 176.806 105.453 176.806 107.149V127.629H169.05V132.355V135.142H173.534V172.465C173.534 174.161 174.867 175.494 176.563 175.494H179.835H207.221H211.705C213.402 175.494 214.735 174.161 214.735 172.465V166.648C214.735 164.831 213.402 163.498 211.705 163.498Z" fill="white"/>
<path d="M266.357 163.498H261.873H243.575H240.303V135.021V132.233H235.82V127.507H243.575V107.149C243.575 105.453 242.242 104.12 240.546 104.12H237.274H234.487C232.79 104.12 231.457 105.453 231.457 107.149V127.629H223.702V132.355V135.142H228.185V172.465C228.185 174.161 229.518 175.494 231.215 175.494H234.487H261.873H266.357C268.053 175.494 269.386 174.161 269.386 172.465V166.648C269.386 164.831 268.174 163.498 266.357 163.498Z" fill="white"/>
<path d="M322.22 135.142L321.372 132.355H316.888L315.555 127.629H323.311L317.252 106.786C316.767 104.968 315.555 103.999 313.738 103.999H310.466H305.982H299.802C298.106 103.999 296.894 104.968 296.288 106.786L290.229 127.629H282.473L281.141 132.355L280.292 135.142H284.776L282.595 142.413C282.231 143.988 282.11 145.321 282.11 146.411V172.586C282.11 174.283 283.443 175.616 285.139 175.616H286.594H288.411H291.077C292.774 175.616 294.107 174.283 294.107 172.586V154.409H297.378H308.163H312.647V172.586C312.647 174.283 313.98 175.616 315.677 175.616H317.131H318.948H321.614C323.311 175.616 324.644 174.283 324.644 172.586V146.411C324.644 145.078 324.401 143.745 324.159 142.413L322.22 135.142ZM307.194 142.291H298.59H295.318L297.257 135.021L297.984 132.233H293.501L294.713 127.507H302.468L305.619 115.874H307.679L310.829 127.507H303.074L304.286 132.233L305.013 135.021H309.496L311.435 142.291H307.194Z" fill="white"/>
</svg>
