<svg width="32" height="32" viewBox="0 0 32 32" fill="none" xmlns="http://www.w3.org/2000/svg">
<path d="M17.3335 4.00004C22.5069 4.00004 26.6669 8.18671 26.6669 13.3334C26.6669 17.0667 24.4935 20.2534 21.3335 21.7467V28H12.0002V24H10.6669C9.18688 24 8.00022 22.8134 8.00022 21.3334V17.3334H6.00022C5.44022 17.3334 5.12022 16.6667 5.44022 16.2534L8.00022 12.88C8.11769 10.4844 9.15252 8.2259 10.8902 6.57264C12.6278 4.91938 14.9351 3.99819 17.3335 4.00004ZM13.7602 9.85337H16.3335C16.3469 9.45337 16.4669 9.14671 16.7069 8.93337C16.9538 8.72863 17.2662 8.61976 17.5869 8.62671C18.0002 8.62671 18.3469 8.76004 18.5869 9.00004C18.8269 9.25337 18.9335 9.60004 18.9335 10C18.9335 10.4267 18.8402 10.7867 18.6269 11.0934C18.4402 11.4 18.1602 11.6667 17.8135 11.88C17.1335 12.3334 16.6669 12.7334 16.4136 13.0934C16.1469 13.44 16.0002 14 16.0002 14.6667H18.6669C18.6669 14.2534 18.7202 13.92 18.8402 13.68C18.9602 13.4267 19.1869 13.2 19.5202 12.9867C20.1202 12.6667 20.6136 12.28 21.0002 11.7467C21.3869 11.2134 21.5869 10.6667 21.5869 10C21.5869 8.98671 21.2269 8.17337 20.5069 7.57337C19.8002 6.97337 18.8269 6.66671 17.5869 6.66671C16.4269 6.66671 15.4935 6.93337 14.7736 7.45337C14.0802 8.00004 13.7336 8.76004 13.7469 9.81337L13.7602 9.85337ZM16.0002 18.6667H18.6669V16H16.0002V18.6667ZM17.3335 1.33337C11.2135 1.33337 6.14688 5.89337 5.41355 11.8667L3.33355 14.6667H3.29355L3.26688 14.7067C2.53355 15.72 2.44022 17.0534 3.01355 18.16C3.49355 19.08 4.34688 19.72 5.33355 19.92V21.3334C5.33355 23.8 7.04022 25.8934 9.33355 26.4934V30.6667H24.0002V23.3334C27.3335 21.1067 29.3335 17.4134 29.3335 13.3334C29.3335 6.70671 23.9469 1.33337 17.3335 1.33337Z" fill="#D3D800"/>
</svg>
