<svg width="16" height="16" viewBox="0 0 16 16" fill="none" xmlns="http://www.w3.org/2000/svg">
<path d="M13.3333 2.66663H2.66659C2.31296 2.66663 1.97382 2.8071 1.72378 3.05715C1.47373 3.3072 1.33325 3.64634 1.33325 3.99996V12C1.33325 12.3536 1.47373 12.6927 1.72378 12.9428C1.97382 13.1928 2.31296 13.3333 2.66659 13.3333H13.3333C13.6869 13.3333 14.026 13.1928 14.2761 12.9428C14.5261 12.6927 14.6666 12.3536 14.6666 12V3.99996C14.6666 3.64634 14.5261 3.3072 14.2761 3.05715C14.026 2.8071 13.6869 2.66663 13.3333 2.66663ZM13.3333 5.49063L7.99992 8.74529L2.66659 5.49063V3.99996H13.3333V5.49063Z" fill="white"/>
</svg>
