<svg width="95" height="99" viewBox="0 0 95 99" fill="none" xmlns="http://www.w3.org/2000/svg">
<path fill-rule="evenodd" clip-rule="evenodd" d="M53.7712 12.9838C46.0087 11.1656 37.8685 11.8718 30.535 14.9997C23.2016 18.1275 17.0575 23.5138 12.9968 30.3748L10.8682 29.115C15.1971 21.8009 21.7469 16.0589 29.5646 12.7245C37.3824 9.39014 46.0602 8.63731 54.3353 10.5756C62.6105 12.5139 70.0513 17.0421 75.5751 23.5014C81.0988 29.9608 84.4174 38.0142 85.0478 46.4899L82.5812 46.6734C81.9898 38.7227 78.8768 31.1682 73.6952 25.109C68.5136 19.0498 61.5338 14.802 53.7712 12.9838Z" fill="#D3D800"/>
<path fill-rule="evenodd" clip-rule="evenodd" d="M35.8374 85.0642C43.4178 87.0634 51.4384 86.5916 58.7322 83.7174C66.026 80.8432 72.2123 75.7167 76.3911 69.0836L78.4839 70.402C74.0244 77.4806 67.4226 82.9514 59.639 86.0186C51.8554 89.0858 43.2962 89.5893 35.2066 87.4559C27.1171 85.3224 19.9194 80.6633 14.6608 74.1565C9.40212 67.6497 6.35695 59.6346 5.96833 51.2775L8.4391 51.1626C8.80327 58.9938 11.6568 66.5044 16.5845 72.6018C21.5122 78.6991 28.2569 83.065 35.8374 85.0642Z" fill="#D3D800"/>
<path fill-rule="evenodd" clip-rule="evenodd" d="M92.207 49.4518C92.207 36.9924 87.2575 25.0432 78.4473 16.2331C69.6372 7.42293 57.6881 2.47344 45.2286 2.47344L45.2286 -2.16161e-06C58.3441 3.92063e-07 70.9223 5.21009 80.1963 14.4841C89.4703 23.7581 94.6804 36.3364 94.6804 49.4518C94.6804 62.5672 89.4703 75.1455 80.1963 84.4195C70.9223 93.6935 58.3441 98.9036 45.2286 98.9036L45.2286 96.4301C57.6881 96.4301 69.6372 91.4806 78.4473 82.6705C87.2575 73.8603 92.207 61.9112 92.207 49.4518Z" fill="#D3D800"/>
<path fill-rule="evenodd" clip-rule="evenodd" d="M45.2286 92.2069C56.568 92.2069 67.443 87.7024 75.4611 79.6842C83.4793 71.6661 87.9838 60.7911 87.9838 49.4517L90.4573 49.4518C90.4573 61.4471 85.6921 72.9512 77.2101 81.4332C68.7281 89.9152 57.224 94.6804 45.2286 94.6804C33.2333 94.6804 21.7292 89.9152 13.2472 81.4332C4.76515 72.9512 2.90534e-06 61.4471 3.95401e-06 49.4517L2.47345 49.4517C2.47345 60.7911 6.97799 71.6661 14.9961 79.6842C23.0143 87.7024 33.8893 92.2069 45.2286 92.2069Z" fill="#828282"/>
<path d="M11.8976 35.2929C12.5097 35.9894 12.8052 36.7071 12.8052 37.3825C12.8052 37.678 12.5942 37.9101 12.2987 37.9101H11.7288H11.2222C10.9267 37.9101 10.7368 37.7413 10.6523 37.3825C10.5046 36.8337 10.0402 36.2638 9.38594 36.2638C8.64721 36.2638 8.03512 36.8548 8.03512 37.5513C8.03512 37.9102 8.22508 38.2267 8.52057 38.5222H7.16974C7.46523 38.8177 7.88737 39.0921 8.35172 39.3454H9.13266C9.17488 39.3665 9.19598 39.3876 9.2382 39.4087C9.49148 39.5354 9.76586 39.6831 10.0614 39.8309C11.2855 40.5274 12.5097 41.646 12.4886 43.5667C12.4886 44.5165 12.1298 45.3186 11.4122 46.0151C10.6946 46.7116 9.85029 47.0493 8.83717 47.0493C7.82405 47.0493 6.97978 46.7116 6.26215 46.0151C5.54453 45.3186 5.18571 44.4954 5.18571 43.5245C5.18571 43.229 5.41789 42.9969 5.71338 42.9969H5.96666H6.28326H6.74761C7.0431 42.9969 7.27527 43.229 7.27527 43.5245C7.27527 44.4743 8.01401 45.0231 8.81606 45.0231C9.66033 45.0231 10.2513 44.3899 10.2513 43.6934C10.2513 42.7647 9.49148 42.0893 8.49946 41.6038C7.6552 41.1817 6.64207 40.6751 5.98777 39.852H5.20682C5.08018 39.7042 4.97465 39.5354 4.89022 39.3665C4.76358 39.1132 4.65805 38.86 4.59473 38.5434H5.96666C5.90334 38.2901 5.88223 38.0157 5.88223 37.7202C5.88223 36.7493 6.21994 35.905 6.89536 35.2507C7.59188 34.5964 8.41504 34.2587 9.38594 34.2587C10.4624 34.2376 11.3067 34.5964 11.8976 35.2929ZM22.8731 34.4275H22.3032H21.5223H16.4145C16.119 34.4275 15.8868 34.6597 15.8868 34.9552V35.9683C15.8868 36.2638 16.119 36.496 16.4145 36.496H17.1954H17.9764H18.5462V38.5222H17.1954V39.3454V39.8309H17.9764V46.3317C17.9764 46.6272 18.2085 46.8594 18.504 46.8594H18.8206H19.0739H19.6016C19.8971 46.8594 20.1292 46.6272 20.1292 46.3317V39.8309V39.3454H19.3483V38.5222H20.6991V36.496H21.5012H22.2821H22.852C23.1475 36.496 23.3797 36.2638 23.3797 35.9683V34.9552C23.4008 34.6597 23.1686 34.4275 22.8731 34.4275ZM44.0642 35.2929C44.6552 35.8839 44.9296 36.5804 44.9296 37.4247V38.5222H43.5788V39.3454H44.3597V39.6409C44.3597 39.7042 44.3597 39.7675 44.3386 39.8098C44.2753 40.7596 43.7687 41.646 42.9667 42.1737L44.6552 46.2262C44.7185 46.3528 44.7185 46.4161 44.7185 46.4795C44.7185 46.7327 44.5497 46.8594 44.2331 46.8594H43.7476H43.4732H43.1777C42.7767 46.8594 42.4812 46.6905 42.3546 46.3528L40.856 42.638H40.265H40.0751H39.6951V46.3317C39.6951 46.6272 39.463 46.8594 39.1675 46.8594H38.682H38.3865H38.1121C37.8166 46.8594 37.5845 46.6272 37.5845 46.3317V39.8309H36.8035V39.3454V38.5222H38.1544V34.9552C38.1544 34.6597 38.3865 34.4275 38.682 34.4275H40.5605H41.3415H41.9113C42.7556 34.4275 43.4732 34.7019 44.0642 35.2929ZM42.7556 38.5222V37.3403C42.7556 36.897 42.3546 36.496 41.8902 36.496H41.3204H40.5394H40.2861V38.5222H38.9353V39.3454H39.7162V39.8309V40.5485H40.2861H40.5394H41.3204C41.7636 40.5485 42.1224 40.2108 42.1857 39.8309H41.4048C41.4048 39.7886 41.4259 39.7675 41.4259 39.7253V39.3454V38.5222H42.7556ZM54.9764 34.4275H54.4065H53.6255H48.5177C48.2222 34.4275 47.9901 34.6597 47.9901 34.9552V35.9683C47.9901 36.2638 48.2222 36.496 48.5177 36.496H49.2987H50.0796H50.6495V38.5222H49.2987V39.3454V39.8309H50.0796V46.3317C50.0796 46.6272 50.3118 46.8594 50.6073 46.8594H50.9239H51.1772H51.7048C52.0003 46.8594 52.2325 46.6272 52.2325 46.3317V39.8309V39.3454H51.4516V38.5222H52.8024V36.496H53.6044H54.3854H54.9553C55.2508 36.496 55.4829 36.2638 55.4829 35.9683V34.9552C55.504 34.6597 55.2719 34.4275 54.9764 34.4275ZM65.4242 34.4275H64.8543H64.3689C64.0734 34.4275 63.8412 34.6597 63.8412 34.9552V38.5222H62.4904V39.3454V39.8309H63.2713V43.6723C63.2713 44.411 62.5537 45.0442 61.7094 45.0442C60.8651 45.0442 60.1264 44.3899 60.1264 43.6512V39.8309V39.3454H59.3455V38.5222H60.6963V34.9552C60.6963 34.6597 60.4641 34.4275 60.1686 34.4275H59.5987H59.1133C58.8178 34.4275 58.5856 34.6597 58.5856 34.9552V38.5222H57.2348V39.3454V39.8309H58.0157V43.5456C58.0157 44.4954 58.3746 45.3186 59.0922 46.0151C59.8098 46.7116 60.6752 47.0493 61.7305 47.0493C62.7859 47.0493 63.6512 46.7116 64.3477 46.0362C65.0654 45.3397 65.4242 44.5165 65.4242 43.5667V39.8309V39.3454H64.6432V38.5222H65.9941V34.9552C65.973 34.6597 65.7408 34.4275 65.4242 34.4275ZM76.1042 35.2929C76.6952 35.8839 76.9906 36.5804 76.9906 37.4247V38.5222H75.6398V39.3454H76.4208V39.8098V39.8309C76.4208 40.6751 76.1253 41.3716 75.5554 41.9626C74.9644 42.5536 74.2679 42.828 73.4236 42.828H72.6427H72.3894H71.8195V46.3317C71.8195 46.6272 71.5873 46.8594 71.2918 46.8594H70.8064H70.5109H70.2365C69.941 46.8594 69.7088 46.6272 69.7088 46.3317V39.8309H68.9279V39.3454V38.5222H70.2787V34.9552C70.2787 34.6597 70.5109 34.4275 70.8064 34.4275H72.6427H73.4236H73.9935C74.8378 34.4275 75.5132 34.7019 76.1042 35.2929ZM74.8378 38.5222V37.3403C74.8378 36.8548 74.4367 36.496 73.9513 36.496H73.3814H72.6005H72.3894V38.5222H71.0386V39.3454H71.8195V39.8309V40.7807H72.3894H72.6005H73.3814C73.888 40.7807 74.2679 40.4007 74.2679 39.9575V39.8309H73.508V39.3454V38.5222H74.8378ZM25.9758 39.8309H25.1948L25.3426 39.3454L25.5748 38.5222H26.9256L27.9809 34.8919C28.0654 34.5753 28.2764 34.4064 28.593 34.4064H29.6695H30.4504H31.0203C31.3158 34.4064 31.5269 34.5753 31.6324 34.8919L32.6877 38.5222H31.3369L31.5691 39.3454H32.35L32.4978 39.8309L32.8777 41.0973C32.941 41.3294 32.9621 41.5616 32.9621 41.7938V46.3528C32.9621 46.6483 32.7299 46.8805 32.4344 46.8805H31.9701H31.6535H31.4002C31.1047 46.8805 30.8725 46.6483 30.8725 46.3528V43.1868H30.0916H28.2131H27.6432V46.3528C27.6432 46.6483 27.411 46.8805 27.1156 46.8805H26.6512H26.3346H26.0813C25.7858 46.8805 25.5537 46.6483 25.5537 46.3528V41.7938C25.5537 41.6038 25.5959 41.3716 25.6381 41.0973L25.9758 39.8309ZM27.7277 38.5222L27.4955 39.3454H28.2764L28.1498 39.8309L27.8121 41.0973H28.382H29.8805H30.6615L30.3238 39.8309H29.5428L29.4162 39.3454L29.184 38.5222H30.5348L29.9861 36.496H29.6273L29.0785 38.5222H27.7277Z" fill="white"/>
<path d="M19.9397 52.2837H19.3698H18.9055C18.61 52.2837 18.3778 52.5159 18.3778 52.8114V56.3784H17.027V57.096C17.027 57.1171 17.027 57.1593 17.027 57.2016C17.0059 57.3071 16.9848 57.4759 16.9215 57.687H17.7024C17.6813 57.7292 17.6813 57.7925 17.6602 57.8559L16.3516 62.6682H15.9928L14.6842 57.8559C14.6631 57.7925 14.6631 57.7503 14.6419 57.687C14.5997 57.497 14.5786 57.3282 14.5575 57.2016H13.7766C13.7766 57.1593 13.7766 57.1171 13.7766 57.096V56.3784H15.1274V52.8325C15.1274 52.537 14.8952 52.3048 14.5997 52.3048H14.0299H13.5655C13.27 52.3048 13.0378 52.537 13.0378 52.8325V56.3995H11.687V57.2227V57.3915C11.687 57.497 11.687 57.6026 11.7081 57.7081H12.4891C12.5102 57.8348 12.5313 57.9614 12.5524 58.088L14.3676 64.2723C14.452 64.5889 14.6631 64.7577 14.9797 64.7577H15.5495H16.626H17.4069C17.7024 64.7577 17.9135 64.5889 18.019 64.2723L19.8342 58.088C19.8553 57.9825 19.8764 57.8559 19.8975 57.7081C19.9186 57.6026 19.9186 57.497 19.9186 57.3915V57.2227H19.1377V56.3995H20.4885V52.8325C20.4674 52.5159 20.2352 52.2837 19.9397 52.2837Z" fill="white"/>
<path d="M30.8932 52.2837H30.3233H29.5423H24.6667C24.4345 52.2837 24.2446 52.4737 24.2446 52.7058V53.9089C24.2446 54.1411 24.4345 54.331 24.6667 54.331H25.3632H26.1442H26.714V56.3784H25.3632V57.2016V57.687H26.1442V62.6682H25.3632H24.6667H24.0968C23.8646 62.6682 23.6747 62.8581 23.6747 63.0903V64.2934C23.6747 64.5256 23.8646 64.7155 24.0968 64.7155H24.6667H29.5423H30.3233C30.6188 64.7155 30.7876 64.5678 30.7876 64.2934V63.0903C30.7876 62.8159 30.6188 62.6682 30.3233 62.6682H29.5423H28.8669H28.297V57.687V57.2016H27.5161V56.3784H28.8669V54.331H29.5423H30.3233H30.8932C31.1887 54.331 31.3575 54.1833 31.3575 53.9089V52.7058C31.3575 52.4314 31.1887 52.2837 30.8932 52.2837Z" fill="white"/>
<path d="M71.4187 52.6846C70.8488 52.3047 70.1945 52.1147 69.4558 52.1147C68.4849 52.1147 67.6195 52.4525 66.9019 53.149C66.1843 53.8455 65.8254 54.6687 65.8254 55.5973V56.3994H64.4746V57.2226V57.708H65.2556V61.4228C65.2556 62.3726 65.6144 63.1958 66.332 63.8923C67.0496 64.5888 67.8939 64.9265 68.907 64.9265C69.9201 64.9265 70.7855 64.5888 71.482 63.9134C72.1997 63.2169 72.5585 62.3937 72.5585 61.4439V58.5734C72.5585 58.2779 72.3263 58.0457 72.0308 58.0457H71.2498H69.9201H69.3502C69.1181 58.0457 68.9281 58.2357 68.9281 58.4679V59.6287C68.9281 59.9031 69.1181 60.0509 69.3502 60.0509H69.688H69.9201H70.4689L70.4478 61.5494C70.4478 61.9505 70.2789 62.2671 69.9412 62.5203C69.6246 62.7947 69.2869 62.9214 68.907 62.9214C68.1261 62.9214 67.4506 62.2882 67.4506 61.5494V57.7291V57.2437H66.6697V56.4205H68.0205V55.5129C68.0205 54.7742 68.6959 54.1621 69.4769 54.1621C70.2789 54.1621 70.7855 54.7742 70.891 55.2807C70.9544 55.6396 71.1443 55.8084 71.4609 55.8084H71.9675H72.5374C72.8329 55.8084 73.0439 55.5762 73.0439 55.2807C73.0228 54.4154 72.5585 53.4022 71.4187 52.6846Z" fill="white"/>
<path d="M83.218 52.2837H83.0491H82.2682H78.0679C77.7725 52.2837 77.5403 52.5159 77.5403 52.8114V56.3784H76.1895V57.2016V57.687H76.9704V64.1879C76.9704 64.4834 77.2026 64.7155 77.4981 64.7155H78.0679H82.3948H83.1758C83.4713 64.7155 83.7034 64.4834 83.7034 64.1879V63.1747C83.7034 62.8792 83.4713 62.6471 83.1758 62.6471H82.3948H79.6509H79.0811V59.27H79.6509H81.8671H82.6481C82.9436 59.27 83.1758 59.0378 83.1758 58.7423V57.7503C83.1758 57.7292 83.1758 57.7081 83.1758 57.7081C83.1547 57.4337 82.9436 57.2227 82.6481 57.2227H81.8671H79.6509H79.0811H78.3001V56.3995H79.6509V54.3733H82.2682H83.0491H83.218C83.5135 54.3733 83.7456 54.1411 83.7456 53.8456V52.8325C83.7456 52.5159 83.5135 52.2837 83.218 52.2837Z" fill="white"/>
<path d="M41.3839 62.647H40.603H37.4158H36.846V57.6869V57.2014H36.065V56.3783H37.4158V52.8324C37.4158 52.5369 37.1837 52.3047 36.8882 52.3047H36.3183H35.8328C35.5373 52.3047 35.3052 52.5369 35.3052 52.8324V56.3994H33.9543V57.2225V57.708H34.7353V64.2089C34.7353 64.5043 34.9675 64.7365 35.263 64.7365H35.8328H40.603H41.3839C41.6794 64.7365 41.9116 64.5043 41.9116 64.2089V63.1957C41.9116 62.8791 41.6794 62.647 41.3839 62.647Z" fill="white"/>
<path d="M50.9023 62.647H50.1214H46.9343H46.3644V57.6869V57.2014H45.5834V56.3783H46.9343V52.8324C46.9343 52.5369 46.7021 52.3047 46.4066 52.3047H45.8367H45.3513C45.0558 52.3047 44.8236 52.5369 44.8236 52.8324V56.3994H43.4728V57.2225V57.708H44.2537V64.2089C44.2537 64.5043 44.4859 64.7365 44.7814 64.7365H45.3513H50.1214H50.9023C51.1978 64.7365 51.43 64.5043 51.43 64.2089V63.1957C51.43 62.8791 51.2189 62.647 50.9023 62.647Z" fill="white"/>
<path d="M60.6335 57.7081L60.4857 57.2227H59.7048L59.4726 56.3995H60.8234L59.7681 52.7691C59.6837 52.4525 59.4726 52.2837 59.156 52.2837H58.5861H57.8052H56.7287C56.4332 52.2837 56.2222 52.4525 56.1167 52.7691L55.0613 56.3995H53.7105L53.4783 57.2227L53.3306 57.7081H54.1115L53.7316 58.9745C53.6683 59.2489 53.6472 59.4811 53.6472 59.671V64.2301C53.6472 64.5256 53.8793 64.7577 54.1748 64.7577H54.4281H54.7447H55.2091C55.5046 64.7577 55.7367 64.5256 55.7367 64.2301V61.0641H56.3066H58.1851H58.9661V64.2301C58.9661 64.5256 59.1982 64.7577 59.4937 64.7577H59.747H60.0636H60.5279C60.8234 64.7577 61.0556 64.5256 61.0556 64.2301V59.671C61.0556 59.4389 61.0134 59.2067 60.9712 58.9745L60.6335 57.7081ZM58.0163 58.9534H56.5177H55.9478L56.2855 57.687L56.4121 57.2016H55.6312L55.8423 56.3784H57.1931L57.7419 54.3522H58.1007L58.6495 56.3784H57.2986L57.5097 57.2016L57.6363 57.687H58.4173L58.755 58.9534H58.0163Z" fill="white"/>
</svg>
