<svg width="17" height="16" viewBox="0 0 17 16" fill="none" xmlns="http://www.w3.org/2000/svg">
<g clip-path="url(#clip0)">
<path d="M13.6583 8.4541L15.537 8.4541C15.7964 8.4541 16.0067 8.24382 16.0067 7.98442L16.0067 0.469678C16.0067 0.210304 15.7964 -7.64778e-06 15.537 -7.67046e-06L13.6583 -7.8347e-06C13.399 -7.85737e-06 13.1887 0.210273 13.1887 0.469678L13.1887 7.98445C13.1887 8.24382 13.3989 8.4541 13.6583 8.4541Z" fill="white"/>
<path d="M1.92576 7.20914C2.0086 7.93773 2.68919 8.45414 3.42247 8.45414L7.08418 8.45414C6.773 9.01135 6.60597 10.5874 6.61337 11.2312C6.62565 12.2969 7.50818 13.1509 8.5739 13.1509L8.96146 13.1509C9.22106 13.1509 9.43115 12.9408 9.43115 12.6812C9.43115 11.5951 9.85405 9.63473 10.6516 8.83711C11.1885 8.30026 11.6474 8.10573 12.2492 7.80498L12.2492 0.757559C11.3279 0.450465 10.1581 -2.09016e-06 8.37503 -2.24604e-06L5.30266 -2.51464e-06C4.29031 -2.60314e-06 3.50188 0.937589 3.89416 1.92821C3.2965 2.09102 2.85575 2.63915 2.85575 3.28771C2.85575 3.47074 2.89107 3.64593 2.95482 3.80693C1.94766 4.08133 1.57695 5.32492 2.27597 6.10577C2.01916 6.39267 1.87754 6.78511 1.92576 7.20914Z" fill="white"/>
</g>
<defs>
<clipPath id="clip0">
<rect x="16.9615" y="16" width="16" height="16" transform="rotate(-180 16.9615 16)" fill="white"/>
</clipPath>
</defs>
</svg>
