<svg width="24" height="24" viewBox="0 0 24 24" fill="none" xmlns="http://www.w3.org/2000/svg">
<path fill-rule="evenodd" clip-rule="evenodd" d="M14.8096 3.23549C14.3291 3.03476 13.8135 2.9314 13.2928 2.9314C12.7721 2.9314 12.2565 3.03476 11.776 3.23549C11.2956 3.43622 10.8597 3.73033 10.4937 4.10077C10.1278 4.47121 9.83896 4.9106 9.64407 5.39348C9.44975 5.87497 9.35265 6.39014 9.35835 6.9093L9.36444 15.7492L9.36453 15.7548C9.37543 16.4448 9.65715 17.1027 10.1489 17.5868C10.6406 18.0708 11.303 18.3421 11.993 18.3421C12.683 18.3421 13.3453 18.0708 13.837 17.5868C14.3288 17.1027 14.6105 16.4448 14.6214 15.7548L14.6215 15.7489V9.00003C14.6215 8.58582 14.2857 8.25003 13.8715 8.25003C13.4573 8.25003 13.1215 8.58582 13.1215 9.00003V15.7363C13.1155 16.0307 12.9947 16.3111 12.7848 16.5178C12.5736 16.7256 12.2892 16.8421 11.993 16.8421C11.6967 16.8421 11.4123 16.7256 11.2011 16.5178C10.9912 16.3111 10.8704 16.0305 10.8644 15.7361L10.8583 6.89991L10.8583 6.89562C10.8544 6.57343 10.9145 6.25367 11.0351 5.95487C11.1556 5.65608 11.3344 5.38419 11.5608 5.15497C11.7873 4.92576 12.057 4.74377 12.3543 4.61956C12.6516 4.49535 12.9706 4.4314 13.2928 4.4314C13.615 4.4314 13.934 4.49535 14.2313 4.61956C14.5286 4.74377 14.7983 4.92576 15.0248 5.15497C15.2512 5.38419 15.43 5.65608 15.5505 5.95487C15.6711 6.25367 15.7312 6.57343 15.7273 6.89562L15.7273 6.90017V15.808L15.7273 15.8134C15.7345 16.3073 15.6434 16.7977 15.4593 17.2561C15.2752 17.7145 15.0019 18.1318 14.6551 18.4836C14.3083 18.8354 13.8951 19.1148 13.4394 19.3055C12.9837 19.4961 12.4947 19.5943 12.0007 19.5943C11.5067 19.5943 11.0177 19.4961 10.562 19.3055C10.1063 19.1148 9.69304 18.8354 9.34628 18.4836C8.99952 18.1318 8.72616 17.7145 8.54208 17.2561C8.35801 16.7977 8.2669 16.3073 8.27405 15.8134L8.27413 15.808V7.48785C8.27413 7.07363 7.93834 6.73785 7.52413 6.73785C7.10991 6.73785 6.77413 7.07363 6.77413 7.48785V15.7973C6.76487 16.4881 6.89266 17.1739 7.15012 17.8151C7.40827 18.458 7.79166 19.0431 8.27797 19.5365C8.76429 20.03 9.34384 20.4218 9.98293 20.6892C10.622 20.9566 11.3079 21.0943 12.0007 21.0943C12.6935 21.0943 13.3794 20.9566 14.0184 20.6892C14.6575 20.4218 15.2371 20.03 15.7234 19.5365C16.2097 19.0431 16.5931 18.458 16.8513 17.8151C17.1087 17.1739 17.2365 16.4881 17.2273 15.7973V6.90903C17.2329 6.38996 17.1358 5.87489 16.9415 5.39348C16.7466 4.9106 16.4578 4.47121 16.0919 4.10077C15.7259 3.73033 15.29 3.43622 14.8096 3.23549Z" fill="white"/>
</svg>
