<svg width="25" height="25" viewBox="0 0 25 25" fill="none" xmlns="http://www.w3.org/2000/svg">
<path d="M12.4904 0C5.60321 0 0 5.60321 0 12.4904C0 19.377 5.60321 24.9808 12.4904 24.9808C19.377 24.9808 24.9808 19.377 24.9808 12.4904C24.9808 5.60321 19.3781 0 12.4904 0ZM15.5966 12.9301H13.5645C13.5645 16.1767 13.5645 20.173 13.5645 20.173H10.5534C10.5534 20.173 10.5534 16.2155 10.5534 12.9301H9.12201V10.3702H10.5534V8.71449C10.5534 7.52864 11.1169 5.67566 13.5922 5.67566L15.8235 5.68422V8.16911C15.8235 8.16911 14.4676 8.16911 14.204 8.16911C13.9404 8.16911 13.5655 8.30093 13.5655 8.86643V10.3708H15.8598L15.5966 12.9301Z" fill="white"/>
</svg>
