<svg width="26" height="25" viewBox="0 0 26 25" fill="none" xmlns="http://www.w3.org/2000/svg">
<path d="M13.4416 0C6.54354 0 0.951172 5.59211 0.951172 12.4904C0.951172 19.3887 6.54354 24.9808 13.4416 24.9808C20.3396 24.9808 25.9319 19.3887 25.9319 12.4904C25.9319 5.59211 20.3396 0 13.4416 0ZM19.7773 13.8413C20.3595 14.4099 20.9754 14.945 21.498 15.5724C21.7295 15.8499 21.9478 16.1369 22.1139 16.4597C22.3511 16.92 22.1369 17.4247 21.7249 17.452L19.166 17.4515C18.5052 17.5062 17.9792 17.2397 17.5358 16.7878C17.1819 16.4278 16.8535 16.0431 16.5126 15.6708C16.3733 15.518 16.2266 15.3741 16.0518 15.2609C15.703 15.0339 15.3999 15.1035 15.2 15.4679C14.9964 15.8387 14.9499 16.2496 14.9304 16.6624C14.9026 17.2657 14.7206 17.4234 14.1152 17.4518C12.8216 17.5123 11.5941 17.3161 10.4533 16.6639C9.44693 16.0886 8.66799 15.2767 7.98923 14.3575C6.66749 12.5655 5.65522 10.5987 4.74569 8.57549C4.54099 8.11983 4.69075 7.87603 5.19343 7.86658C6.02859 7.85048 6.86375 7.85252 7.69892 7.86581C8.03881 7.87118 8.2637 8.06566 8.39429 8.38638C8.8456 9.49678 9.39889 10.5533 10.0922 11.5331C10.277 11.794 10.4656 12.0541 10.7342 12.2384C11.0306 12.4418 11.2565 12.3746 11.3963 12.0437C11.4858 11.8333 11.5244 11.6085 11.5438 11.383C11.6102 10.611 11.6181 9.83923 11.5031 9.07025C11.4316 8.58904 11.161 8.27828 10.6813 8.1873C10.437 8.14105 10.4727 8.05058 10.5916 7.91104C10.7978 7.6698 10.991 7.52055 11.3772 7.52055L14.2683 7.52004C14.7239 7.60949 14.8262 7.81393 14.888 8.27291L14.8906 11.4858C14.8852 11.6634 14.9798 12.1898 15.2987 12.3061C15.5542 12.3905 15.7229 12.1855 15.8757 12.0237C16.5691 11.288 17.0631 10.4196 17.5054 9.5208C17.7007 9.12443 17.8691 8.71426 18.0326 8.30332C18.1543 7.99947 18.3434 7.84997 18.6864 7.85508L21.4704 7.8584C21.5524 7.8584 21.6358 7.85917 21.717 7.87322C22.1862 7.95347 22.3148 8.15536 22.1696 8.61306C21.9411 9.3322 21.4972 9.93123 21.0633 10.5318C20.5982 11.1748 20.1022 11.7953 19.6416 12.4411C19.2184 13.0314 19.2519 13.3286 19.7773 13.8413Z" fill="white"/>
</svg>
