<svg width="26" height="25" viewBox="0 0 26 25" fill="none" xmlns="http://www.w3.org/2000/svg">
<path fill-rule="evenodd" clip-rule="evenodd" d="M13.1691 24.9808C20.0673 24.9808 25.6595 19.3886 25.6595 12.4904C25.6595 5.59213 20.0673 0 13.1691 0C6.27084 0 0.678711 5.59213 0.678711 12.4904C0.678711 19.3886 6.27084 24.9808 13.1691 24.9808ZM16.6542 7.54614C18.5865 7.54614 19.5983 7.81187 20.1463 8.46333C20.6969 9.11766 20.738 10.1199 20.738 11.5742V14.2026C20.738 15.869 20.4752 16.8316 19.8592 17.4212C19.2584 17.9961 18.3299 18.2306 16.6542 18.2306H9.63988C6.18772 18.2306 5.55615 16.8741 5.55615 14.2026V11.5742C5.55615 10.1952 5.55615 9.19881 6.08845 8.52258C6.63441 7.82902 7.66335 7.54614 9.63988 7.54614H16.6542ZM12.1178 14.9159L15.303 13.2513C15.4648 13.1667 15.5661 12.9992 15.5659 12.8165C15.5657 12.634 15.4639 12.4667 15.3018 12.3826L12.1167 10.7286C11.9649 10.6498 11.783 10.6558 11.6367 10.7447C11.4905 10.8335 11.4012 10.9922 11.4012 11.1632V14.4819C11.4012 14.6532 11.4907 14.812 11.6372 14.9008C11.7151 14.9479 11.8029 14.9716 11.891 14.9716C11.9687 14.9716 12.0466 14.9531 12.1178 14.9159Z" fill="white"/>
</svg>
